{
  "tests" : [ {
    "name" : "pocetna.gspec",
    "startedAt" : 1573606576952,
    "endedAt" : 1573606589293,
    "failed" : false,
    "statistic" : {
      "passed" : 40,
      "errors" : 0,
      "warnings" : 0,
      "total" : 40
    },
    "testId" : "1-pocetna.gspec",
    "duration" : 12341,
    "failed" : false
  } ]
}