{
  "tests" : [ {
    "name" : "mobileSale.gspec",
    "startedAt" : 1573605690783,
    "endedAt" : 1573605708010,
    "failed" : false,
    "statistic" : {
      "passed" : 52,
      "errors" : 0,
      "warnings" : 0,
      "total" : 52
    },
    "testId" : "1-mobilesale.gspec",
    "duration" : 17227,
    "failed" : false
  } ]
}